[
  {
    "timestamp": 5,
    "pc": 3090599056,
    "stateId": 1,
    "inputs": [
      {
        "name": "v0_list__5__xxx_0",
        "bytes": "0x0 0x0 0x0 0x0",
        "i32": 0,
        "string": "\\x0\\x0\\x0\\x0"
      },
      {
        "name": "v1_vec_type__xxx_1",
        "bytes": "0xa 0x0 0x0 0x0",
        "i32": 10,
        "string": "\\xa\\x0\\x0\\x0"
      },
      {
        "name": "v2_vec_data__xxx_16",
        "bytes": "0x0 0x0 0xe 0x50 0x6f 0x73 0x73 0x69 0x62 0x6c 0x65 0x4d 0x65 0x74 0x68 0x6f 0x64 0x0 0x0 0x0",
        "string": "\\x0\\x0\\xePossibleMethod\\x0\\x0\\x0"
      },
      {
        "name": "v3_vec_type__xxx_17",
        "bytes": "0xa 0x0 0x0 0x0",
        "i32": 10,
        "string": "\\xa\\x0\\x0\\x0"
      },
      {
        "name": "v4_vec_data__xxx_18",
        "bytes": "0x0 0x0 0x6 0x0 0x0 0x0 0xfe 0x0 0x0 0x0 0x0 0x0 0x0 0x2c 0xff 0x0 0x0 0x0 0x2 0x0",
        "string": "\\x0\\x0\\x6\\x0\\x0\\x0\\xfe\\x0\\x0\\x0\\x0\\x0\\x0,\\xff\\x0\\x0\\x0\\x2\\x0"
      },
      {
        "name": "v5_vec_type__xxx_19",
        "bytes": "0xa 0x0 0x0 0x0",
        "i32": 10,
        "string": "\\xa\\x0\\x0\\x0"
      },
      {
        "name": "v6_vec_data__xxx_20",
        "bytes": "0x0 0x0 0x1 0x0 0x4 0x0 0x9 0x0 0x0 0x0 0xc 0x72 0x65 0x66 0x4d 0x65 0x74 0x68 0x6f 0x64",
        "string": "\\x0\\x0\\x1\\x0\\x4\\x0\\x9\\x0\\x0\\x0\\xcrefMethod"
      },
      {
        "name": "v7_vec_type__xxx_21",
        "bytes": "0xa 0x0 0x0 0x0",
        "i32": 10,
        "string": "\\xa\\x0\\x0\\x0"
      },
      {
        "name": "v8_vec_data__xxx_22",
        "bytes": "0x0 0x0 0x2 0x0 0x0 0x0 0xfe 0x0 0x0 0x0 0x0 0x0 0x0 0x31 0xff 0x0 0x0 0x0 0x2 0x0",
        "string": "\\x0\\x0\\x2\\x0\\x0\\x0\\xfe\\x0\\x0\\x0\\x0\\x0\\x01\\xff\\x0\\x0\\x0\\x2\\x0"
      },
      {
        "name": "v9_vec_type__xxx_23",
        "bytes": "0xa 0x0 0x0 0x0",
        "i32": 10,
        "string": "\\xa\\x0\\x0\\x0"
      },
      {
        "name": "v10_vec_data__xxx_24",
        "bytes": "0x0 0x0 0xc 0x0 0x0 0x0 0x27 0x0 0x0 0x0 0xd 0x0 0x0 0x0 0x4 0x0 0x0 0x0 0x14 0x0",
        "string": "\\x0\\x0\\xc\\x0\\x0\\x0'\\x0\\x0\\x0\\xd\\x0\\x0\\x0\\x4\\x0\\x0\\x0\\x14\\x0"
      },
      {
        "name": "v11_str__xxx_25",
        "bytes": "0x10 0x58 0xfd 0xb8 0x3a",
        "string": "\\x10X\\xfd\\xb8:"
      },
      {
        "name": "v12_str__xxx_26",
        "bytes": "0x10 0x58 0xfd 0xb8 0x3a",
        "string": "\\x10X\\xfd\\xb8:"
      },
      {
        "name": "v13_str__xxx_27",
        "bytes": "0x10 0x58 0xfd 0xb8 0x3a",
        "string": "\\x10X\\xfd\\xb8:"
      },
      {
        "name": "v14_str__xxx_28",
        "bytes": "0x10 0x58 0xfd 0xb8 0x3a",
        "string": "\\x10X\\xfd\\xb8:"
      },
      {
        "name": "v15_str__xxx_29",
        "bytes": "0x10 0x58 0xfd 0xb8 0x3a",
        "string": "\\x10X\\xfd\\xb8:"
      }
    ]
  }
]
